('/home/jurica/PycharmProjects/Sail/build/Gui/Gui',
 True,
 False,
 True,
 None,
 None,
 False,
 False,
 None,
 True,
 'Gui.pkg',
 [('out00-PYZ.pyz',
   '/home/jurica/PycharmProjects/Sail/build/Gui/out00-PYZ.pyz',
   'PYZ'),
  ('struct', '/usr/lib/python2.7/struct.pyc', 'PYMODULE'),
  ('pyimod01_os_path',
   '/usr/local/lib/python2.7/dist-packages/PyInstaller/loader/pyimod01_os_path.pyc',
   'PYMODULE'),
  ('pyimod02_archive',
   '/usr/local/lib/python2.7/dist-packages/PyInstaller/loader/pyimod02_archive.pyc',
   'PYMODULE'),
  ('pyimod03_importers',
   '/usr/local/lib/python2.7/dist-packages/PyInstaller/loader/pyimod03_importers.pyc',
   'PYMODULE'),
  ('pyiboot01_bootstrap',
   '/usr/local/lib/python2.7/dist-packages/PyInstaller/loader/pyiboot01_bootstrap.py',
   'PYSOURCE'),
  ('pyi_rth_qt4plugins',
   '/usr/local/lib/python2.7/dist-packages/PyInstaller/loader/rthooks/pyi_rth_qt4plugins.py',
   'PYSOURCE'),
  ('Gui', '/home/jurica/PycharmProjects/Sail/Gui.py', 'PYSOURCE')],
 [],
 False,
 False,
 1504101007,
 [('run',
   '/usr/local/lib/python2.7/dist-packages/PyInstaller/bootloader/Linux-64bit/run',
   'EXECUTABLE')])
