([('Gui', '/home/jurica/PycharmProjects/Sail/build/Gui/Gui', 'EXECUTABLE'),
  ('libz.so.1', '/lib/x86_64-linux-gnu/libz.so.1', 'BINARY'),
  ('qt4_plugins/codecs/libqtwcodecs.so',
   '/usr/lib/x86_64-linux-gnu/qt4/plugins/codecs/libqtwcodecs.so',
   'BINARY'),
  ('qt4_plugins/imageformats/libqmng.so',
   '/usr/lib/x86_64-linux-gnu/qt4/plugins/imageformats/libqmng.so',
   'BINARY'),
  ('qt4_plugins/imageformats/libqsvg.so',
   '/usr/lib/x86_64-linux-gnu/qt4/plugins/imageformats/libqsvg.so',
   'BINARY'),
  ('qt4_plugins/imageformats/libqgif.so',
   '/usr/lib/x86_64-linux-gnu/qt4/plugins/imageformats/libqgif.so',
   'BINARY'),
  ('qt4_plugins/codecs/libqjpcodecs.so',
   '/usr/lib/x86_64-linux-gnu/qt4/plugins/codecs/libqjpcodecs.so',
   'BINARY'),
  ('qt4_plugins/imageformats/libqico.so',
   '/usr/lib/x86_64-linux-gnu/qt4/plugins/imageformats/libqico.so',
   'BINARY'),
  ('qt4_plugins/iconengines/libqsvgicon.so',
   '/usr/lib/x86_64-linux-gnu/qt4/plugins/iconengines/libqsvgicon.so',
   'BINARY'),
  ('qt4_plugins/imageformats/libqtga.so',
   '/usr/lib/x86_64-linux-gnu/qt4/plugins/imageformats/libqtga.so',
   'BINARY'),
  ('qt4_plugins/codecs/libqcncodecs.so',
   '/usr/lib/x86_64-linux-gnu/qt4/plugins/codecs/libqcncodecs.so',
   'BINARY'),
  ('qt4_plugins/codecs/libqkrcodecs.so',
   '/usr/lib/x86_64-linux-gnu/qt4/plugins/codecs/libqkrcodecs.so',
   'BINARY'),
  ('qt4_plugins/inputmethods/libqimsw-multi.so',
   '/usr/lib/x86_64-linux-gnu/qt4/plugins/inputmethods/libqimsw-multi.so',
   'BINARY'),
  ('qt4_plugins/accessible/libqtaccessiblewidgets.so',
   '/usr/lib/x86_64-linux-gnu/qt4/plugins/accessible/libqtaccessiblewidgets.so',
   'BINARY'),
  ('qt4_plugins/graphicssystems/libqglgraphicssystem.so',
   '/usr/lib/x86_64-linux-gnu/qt4/plugins/graphicssystems/libqglgraphicssystem.so',
   'BINARY'),
  ('qt4_plugins/imageformats/libqtiff.so',
   '/usr/lib/x86_64-linux-gnu/qt4/plugins/imageformats/libqtiff.so',
   'BINARY'),
  ('qt4_plugins/imageformats/libqjpeg.so',
   '/usr/lib/x86_64-linux-gnu/qt4/plugins/imageformats/libqjpeg.so',
   'BINARY'),
  ('qt4_plugins/graphicssystems/libqtracegraphicssystem.so',
   '/usr/lib/x86_64-linux-gnu/qt4/plugins/graphicssystems/libqtracegraphicssystem.so',
   'BINARY'),
  ('PyQt4.QtCore',
   '/usr/lib/python2.7/dist-packages/PyQt4/QtCore.so',
   'EXTENSION'),
  ('sip',
   '/usr/lib/python2.7/dist-packages/sip.x86_64-linux-gnu.so',
   'EXTENSION'),
  ('_hashlib',
   '/usr/lib/python2.7/lib-dynload/_hashlib.x86_64-linux-gnu.so',
   'EXTENSION'),
  ('readline',
   '/usr/lib/python2.7/lib-dynload/readline.x86_64-linux-gnu.so',
   'EXTENSION'),
  ('resource',
   '/usr/lib/python2.7/lib-dynload/resource.x86_64-linux-gnu.so',
   'EXTENSION'),
  ('_multibytecodec',
   '/usr/lib/python2.7/lib-dynload/_multibytecodec.x86_64-linux-gnu.so',
   'EXTENSION'),
  ('_codecs_cn',
   '/usr/lib/python2.7/lib-dynload/_codecs_cn.x86_64-linux-gnu.so',
   'EXTENSION'),
  ('_codecs_jp',
   '/usr/lib/python2.7/lib-dynload/_codecs_jp.x86_64-linux-gnu.so',
   'EXTENSION'),
  ('_codecs_hk',
   '/usr/lib/python2.7/lib-dynload/_codecs_hk.x86_64-linux-gnu.so',
   'EXTENSION'),
  ('_codecs_tw',
   '/usr/lib/python2.7/lib-dynload/_codecs_tw.x86_64-linux-gnu.so',
   'EXTENSION'),
  ('_codecs_iso2022',
   '/usr/lib/python2.7/lib-dynload/_codecs_iso2022.x86_64-linux-gnu.so',
   'EXTENSION'),
  ('bz2',
   '/usr/lib/python2.7/lib-dynload/bz2.x86_64-linux-gnu.so',
   'EXTENSION'),
  ('_codecs_kr',
   '/usr/lib/python2.7/lib-dynload/_codecs_kr.x86_64-linux-gnu.so',
   'EXTENSION'),
  ('PyQt4.QtGui',
   '/usr/lib/python2.7/dist-packages/PyQt4/QtGui.so',
   'EXTENSION'),
  ('libpcre.so.3', '/lib/x86_64-linux-gnu/libpcre.so.3', 'BINARY'),
  ('libgcc_s.so.1', '/lib/x86_64-linux-gnu/libgcc_s.so.1', 'BINARY'),
  ('libQtCore.so.4', '/usr/lib/x86_64-linux-gnu/libQtCore.so.4', 'BINARY'),
  ('libglib-2.0.so.0', '/lib/x86_64-linux-gnu/libglib-2.0.so.0', 'BINARY'),
  ('libstdc++.so.6', '/usr/lib/x86_64-linux-gnu/libstdc++.so.6', 'BINARY'),
  ('libmng.so.2', '/usr/lib/x86_64-linux-gnu/libmng.so.2', 'BINARY'),
  ('liblcms2.so.2', '/usr/lib/x86_64-linux-gnu/liblcms2.so.2', 'BINARY'),
  ('libXt.so.6', '/usr/lib/x86_64-linux-gnu/libXt.so.6', 'BINARY'),
  ('libexpat.so.1', '/lib/x86_64-linux-gnu/libexpat.so.1', 'BINARY'),
  ('libICE.so.6', '/usr/lib/x86_64-linux-gnu/libICE.so.6', 'BINARY'),
  ('libffi.so.6', '/usr/lib/x86_64-linux-gnu/libffi.so.6', 'BINARY'),
  ('libSM.so.6', '/usr/lib/x86_64-linux-gnu/libSM.so.6', 'BINARY'),
  ('libX11.so.6', '/usr/lib/x86_64-linux-gnu/libX11.so.6', 'BINARY'),
  ('libXau.so.6', '/usr/lib/x86_64-linux-gnu/libXau.so.6', 'BINARY'),
  ('libjpeg.so.8', '/usr/lib/x86_64-linux-gnu/libjpeg.so.8', 'BINARY'),
  ('libQtGui.so.4', '/usr/lib/x86_64-linux-gnu/libQtGui.so.4', 'BINARY'),
  ('libXext.so.6', '/usr/lib/x86_64-linux-gnu/libXext.so.6', 'BINARY'),
  ('libXi.so.6', '/usr/lib/x86_64-linux-gnu/libXi.so.6', 'BINARY'),
  ('libgobject-2.0.so.0',
   '/usr/lib/x86_64-linux-gnu/libgobject-2.0.so.0',
   'BINARY'),
  ('libuuid.so.1', '/lib/x86_64-linux-gnu/libuuid.so.1', 'BINARY'),
  ('libfontconfig.so.1',
   '/usr/lib/x86_64-linux-gnu/libfontconfig.so.1',
   'BINARY'),
  ('libXrender.so.1', '/usr/lib/x86_64-linux-gnu/libXrender.so.1', 'BINARY'),
  ('libfreetype.so.6',
   '/usr/lib/x86_64-linux-gnu/libfreetype.so.6',
   'BINARY'),
  ('libXdmcp.so.6', '/usr/lib/x86_64-linux-gnu/libXdmcp.so.6', 'BINARY'),
  ('libpng12.so.0', '/lib/x86_64-linux-gnu/libpng12.so.0', 'BINARY'),
  ('libaudio.so.2', '/usr/lib/x86_64-linux-gnu/libaudio.so.2', 'BINARY'),
  ('libQtSvg.so.4', '/usr/lib/x86_64-linux-gnu/libQtSvg.so.4', 'BINARY'),
  ('libQtScript.so.4',
   '/usr/lib/x86_64-linux-gnu/libQtScript.so.4',
   'BINARY'),
  ('libQtXmlPatterns.so.4',
   '/usr/lib/x86_64-linux-gnu/libQtXmlPatterns.so.4',
   'BINARY'),
  ('libQtSql.so.4', '/usr/lib/x86_64-linux-gnu/libQtSql.so.4', 'BINARY'),
  ('libQtNetwork.so.4',
   '/usr/lib/x86_64-linux-gnu/libQtNetwork.so.4',
   'BINARY'),
  ('libQtDeclarative.so.4',
   '/usr/lib/x86_64-linux-gnu/libQtDeclarative.so.4',
   'BINARY'),
  ('libxcb-sync.so.1',
   '/usr/lib/x86_64-linux-gnu/libxcb-sync.so.1',
   'BINARY'),
  ('libXxf86vm.so.1', '/usr/lib/x86_64-linux-gnu/libXxf86vm.so.1', 'BINARY'),
  ('libX11-xcb.so.1', '/usr/lib/x86_64-linux-gnu/libX11-xcb.so.1', 'BINARY'),
  ('libXfixes.so.3', '/usr/lib/x86_64-linux-gnu/libXfixes.so.3', 'BINARY'),
  ('libXdamage.so.1', '/usr/lib/x86_64-linux-gnu/libXdamage.so.1', 'BINARY'),
  ('libdrm.so.2', '/usr/lib/x86_64-linux-gnu/libdrm.so.2', 'BINARY'),
  ('libxshmfence.so.1',
   '/usr/lib/x86_64-linux-gnu/libxshmfence.so.1',
   'BINARY'),
  ('libxcb-present.so.0',
   '/usr/lib/x86_64-linux-gnu/libxcb-present.so.0',
   'BINARY'),
  ('libxcb-glx.so.0', '/usr/lib/x86_64-linux-gnu/libxcb-glx.so.0', 'BINARY'),
  ('libQtOpenGL.so.4',
   '/usr/lib/x86_64-linux-gnu/libQtOpenGL.so.4',
   'BINARY'),
  ('libglapi.so.0', '/usr/lib/x86_64-linux-gnu/libglapi.so.0', 'BINARY'),
  ('libtiff.so.5', '/usr/lib/x86_64-linux-gnu/libtiff.so.5', 'BINARY'),
  ('liblzma.so.5', '/lib/x86_64-linux-gnu/liblzma.so.5', 'BINARY'),
  ('libjbig.so.0', '/usr/lib/x86_64-linux-gnu/libjbig.so.0', 'BINARY'),
  ('libcrypto.so.1.0.0',
   '/lib/x86_64-linux-gnu/libcrypto.so.1.0.0',
   'BINARY'),
  ('libreadline.so.6', '/lib/x86_64-linux-gnu/libreadline.so.6', 'BINARY'),
  ('libtinfo.so.5', '/lib/x86_64-linux-gnu/libtinfo.so.5', 'BINARY'),
  ('libbz2.so.1.0', '/lib/x86_64-linux-gnu/libbz2.so.1.0', 'BINARY'),
  ('libpython2.7.so.1.0',
   '/usr/lib/x86_64-linux-gnu/libpython2.7.so.1.0',
   'BINARY')],)
